{
  "candle_from_db": true,
  "symbol": "XBTUSD",
  "period": "30m",
  "test": true,
  "loop_delay": 1,
  "download_candles": 120,
  "simple_create": true,
  "metric_from_db": false,
  "datedeltax": 0,

  "enable_pvo": true,
  "pvo_max_long_open": 5,
  "pvo_max_long_close": 1,
  "pvo_max_short_open": -4,
  "pvo_max_short_close": 1,

  "tp_price": 0,
  "sl_price": 0,
  "enable_long": true,
  "enable_short": false,

  "ema1": 15,
  "ema2": 30,
  "ema1bs": 0.5,
  "ema1bc": 0,
  "ema1ss": -0.5,
  "ema1sc": 0,
  "proxy" : {}
}
